…
    ## user_ObjectFlag

    ## outlier_ObjectFlag

    ## The data are summarized by: strain, notes

    ## Returning list with elements d (the summary data frame) and p (the summary plot)

``` r
co2
```

    ## $d
    ## # A tibble: 78 × 8
    ##    strain notes     grouping    objectFlag objectFlag_group_perc grand_n group_n
    ##    <chr>  <chr>     <chr>       <fct>                      <dbl>   <int>   <int>
    ##  1 CB4856 control   strain, no… edge                     0.155     23932    2844
    ##  2 CB4856 control   strain, no… cluster                  0.230     23932    2844
    ##  3 CB4856 control   strain, no… junk                     0.00668   23932    2844
    ##  4 CB4856 control   strain, no… outlier                  0.0306    23932    2844
    ##  5 CB4856 control   strain, no… noFlag                   0.577     23932    2844
    ##  6 CB4856 treatment strain, no… edge                     0.156     23932    2750
    ##  7 CB4856 treatment strain, no… cluster                  0.242     23932    2750
    ##  8 CB4856 treatment strain, no… junk                     0.0135    23932    2750
    ##  9 CB4856 treatment strain, no… outlier                  0.0222    23932    2750
    ## 10 CB4856 treatment strain, no… noFlag                   0.566     23932    2750
    ## # ℹ 68 more rows
    ## # ℹ 1 more variable: objectFlag_n <int>
    ## 
    ## $p
…
