…
#check propotion of flags
co2 <- checkOF(data = o, strain, notes)
## 4 ObjectFlags detected in data. They were applied in the following order:
## edge_ObjectFlag
## cluster_ObjectFlag
## user_ObjectFlag
## outlier_ObjectFlag
## The data are summarized by: strain, notes
## Returning list with elements d (the summary data frame) and p (the summary plot)
```

``` r
co2
## $d
## # A tibble: 78 × 8
##    strain notes     grouping    objectFlag objectFlag_group_perc grand_n group_n
##    <chr>  <chr>     <chr>       <fct>                      <dbl>   <int>   <int>
##  1 CB4856 control   strain, no… edge                     0.145     24983    2810
##  2 CB4856 control   strain, no… cluster                  0.249     24983    2810
##  3 CB4856 control   strain, no… junk                     0.0107    24983    2810
##  4 CB4856 control   strain, no… outlier                  0.0263    24983    2810
##  5 CB4856 control   strain, no… noFlag                   0.569     24983    2810
##  6 CB4856 treatment strain, no… edge                     0.180     24983    2833
##  7 CB4856 treatment strain, no… cluster                  0.153     24983    2833
##  8 CB4856 treatment strain, no… junk                     0.0515    24983    2833
##  9 CB4856 treatment strain, no… outlier                  0.00494   24983    2833
## 10 CB4856 treatment strain, no… noFlag                   0.610     24983    2833
## # ℹ 68 more rows
## # ℹ 1 more variable: objectFlag_n <int>
## 
## $p
```
…
